<soapenv:Envelope xmlns:soapenv="http://schemas.xmlsoap.org/soap/envelope/" xmlns:v1="http://www.colt.net/numberHosting/v1" xmlns:v11="http://www.colt.net/xml/ns/NumberHosting/v1.0" xmlns:v12="http://www.colt.net/xml/ns/cbe/nhm/v1.0">
   <soapenv:Header/>
   <soapenv:Body>
      <v1:updatePortIn>
         <updatePortInRequest>
            <v11:updatePortInRequest>
               <v11:serviceHeader>
                  <!--Optional:-->
                  <v12:senderSystem>${senderSystem}</v12:senderSystem>
                  <!--Optional:-->
                  <v12:creationTime></v12:creationTime>
               </v11:serviceHeader>
               <v11:portInDetails>
                  <v12:resellerProfile>
                     <v12:serviceProfile>${serviceProfile}</v12:serviceProfile>
                     <v12:productID>${productID}</v12:productID>
                     <v12:Country>${Country}</v12:Country>
                     <!--Optional:-->
                     <v12:subResellerID></v12:subResellerID>
                  </v12:resellerProfile>
                  <v12:portInTranxRef>${portInTranxRef}</v12:portInTranxRef>
                  <v12:newPortInDate>${newPortInDate}</v12:newPortInDate>
                  <v12:newPortInWindow>${newPortInWindow}</v12:newPortInWindow>
                  <!--Optional:-->
                  <v12:userName></v12:userName>
                  <!--Optional:-->
                  <v12:switchMaintainer>
                     <v12:switchMaintainerFirstName>${switchMaintainerFirstName}</v12:switchMaintainerFirstName>
                     <v12:switchMaintainerLastName>${switchMaintainerLastName}</v12:switchMaintainerLastName>
                     <v12:switchMaintainerPhone>${switchMaintainerPhone}</v12:switchMaintainerPhone>
                     <!--Optional:-->
                     <v12:switchMaintainerMobile></v12:switchMaintainerMobile>
                     <v12:switchMaintainerEmail>${switchMaintainerEmail}</v12:switchMaintainerEmail>
                     <!--Optional:-->
                     <v12:switchMaintainerFax></v12:switchMaintainerFax>
                  </v12:switchMaintainer>
                  <!--Optional:-->
                  <v12:notes></v12:notes>
               </v11:portInDetails>
            </v11:updatePortInRequest>
         </updatePortInRequest>
      </v1:updatePortIn>
   </soapenv:Body>
</soapenv:Envelope>