<soapenv:Envelope xmlns:soapenv="http://schemas.xmlsoap.org/soap/envelope/" xmlns:v1="http://www.colt.net/numberHosting/v1" xmlns:v11="http://www.colt.net/xml/ns/NumberHosting/v1.0" xmlns:v12="http://www.colt.net/xml/ns/cbe/nhm/v1.0">
   <soapenv:Header/>
   <soapenv:Body>
      <v1:numberEnquiry>
         <numberQueryRequest>
            <v11:numberQueryRequest>
               <v11:serviceHeader>
                  <!--Optional:-->
                  <v12:senderSystem>${senderSystem}</v12:senderSystem>
                  <!--Optional:-->
                  <v12:creationTime></v12:creationTime>
               </v11:serviceHeader>
               <v11:queryDetails>
                  <v12:resellerProfile>
                     <v12:serviceProfile>${serviceProfile}</v12:serviceProfile>
                     <v12:productID>${productID}</v12:productID>
                     <v12:Country>${Country}</v12:Country>
                     <!--Optional:-->
                     <v12:subResellerID></v12:subResellerID>
                  </v12:resellerProfile>
                  <!--Optional:-->
                  <v12:customerRef></v12:customerRef>
                  <!--Optional:-->
                  <v12:cliStatus>${cliStatus4}</v12:cliStatus>
                  <!--Optional:-->
                  <v12:geoblockDetails>
                     <v12:areaCode></v12:areaCode>
                     <!--Optional:-->
                     <v12:areaCodeExtn></v12:areaCodeExtn>
                     <!--Optional:-->
                     <v12:rangeStart></v12:rangeStart>
                     <!--Optional:-->
                     <v12:rangeEnd></v12:rangeEnd>
                     <v12:blockSize></v12:blockSize>
                     <!--Optional:-->
                     <v12:quantity></v12:quantity>
                  </v12:geoblockDetails>
                  <!--Optional:-->
                  <v12:geoblockAddressDetails>
                     <v12:address>
                        <!--Optional:-->
                        <v12:floorSuite></v12:floorSuite>
                        <!--Optional:-->
                        <v12:flatNumber></v12:flatNumber>
                        <!--Optional:-->
                        <v12:premisesNumber></v12:premisesNumber>
                        <!--Optional:-->
                        <v12:premisesNumberLetter></v12:premisesNumberLetter>
                        <!--Optional:-->
                        <v12:buildingName></v12:buildingName>
                        <!--Optional:-->
                        <v12:departmentBranch></v12:departmentBranch>
                        <!--Optional:-->
                        <v12:streetName></v12:streetName>
                        <!--Optional:-->
                        <v12:municipalityName></v12:municipalityName>
                        <!--Optional:-->
                        <v12:cityTown></v12:cityTown>
                        <!--Optional:-->
                        <v12:state></v12:state>
                        <!--Optional:-->
                        <v12:postalZipCode></v12:postalZipCode>
                        <!--Optional:-->
                        <v12:country></v12:country>
                        <!--Optional:-->
                        <v12:poBoxNumber></v12:poBoxNumber>
                        <!--Optional:-->
                        <v12:cifNIF></v12:cifNIF>
                        <!--Optional:-->
                        <v12:extensionNumber></v12:extensionNumber>
                     </v12:address>
                     <v12:blockSize></v12:blockSize>
                     <!--Optional:-->
                     <v12:quantity></v12:quantity>
                  </v12:geoblockAddressDetails>
                  <!--Optional:-->
                  <v12:nonGeoblockDetails>
                     <!--Optional:-->
                     <v12:rangeStart></v12:rangeStart>
                     <!--Optional:-->
                     <v12:rangeEnd></v12:rangeEnd>
                     <v12:blockSize></v12:blockSize>
                     <!--Optional:-->
                     <v12:quantity></v12:quantity>
                  </v12:nonGeoblockDetails>
                  <!--Optional:-->
                  <v12:geoSingleNumbersDetails>
                     <v12:areaCode></v12:areaCode>
                  </v12:geoSingleNumbersDetails>
                  <!--Optional:-->
                  <v12:numberType></v12:numberType>
                  <!--Optional:-->
                  <v12:numberCategory></v12:numberCategory>
                  <!--Optional:-->
                  <v12:serviceType></v12:serviceType>
                  <!--Optional:-->
                  <v12:cliDetails>
                     <!--Optional:-->
                     <v12:areaCode></v12:areaCode>
                     <!--Optional:-->
                     <v12:areaCodeExtn></v12:areaCodeExtn>
                     <!--Optional:-->
                     <v12:rangeStart></v12:rangeStart>
                     <!--Optional:-->
                     <v12:rangeEnd></v12:rangeEnd>
                     <!--Optional:-->
                     <v12:startFullNumber></v12:startFullNumber>
                     <!--Optional:-->
                     <v12:endFullNumber></v12:endFullNumber>
                  </v12:cliDetails>
                  <!--Optional:-->
                  <v12:transactionId></v12:transactionId>
               </v11:queryDetails>
            </v11:numberQueryRequest>
         </numberQueryRequest>
      </v1:numberEnquiry>
   </soapenv:Body>
</soapenv:Envelope>