<soapenv:Envelope xmlns:soapenv="http://schemas.xmlsoap.org/soap/envelope/">
   <soapenv:Body>
      <ser-root:portInResponse xmlns:ser-root="http://www.colt.net/numberHosting/v1" xmlns:xsi="http://www.w3.org/2001/XMLSchema-instance">
         <newPortInResponse>
            <nh:newPortInResponse xmlns:nh="http://www.colt.net/xml/ns/NumberHosting/v1.0">
               <nh:header>
                  <nhm:status xmlns:nhm="http://www.colt.net/xml/ns/cbe/nhm/v1.0">SUCCESS</nhm:status>
               </nh:header>
               <nh:result>
                  <nhm:transactionId xmlns:nhm="http://www.colt.net/xml/ns/cbe/nhm/v1.0">b44bb043-bdca-422e-9f44-f626dfddf093</nhm:transactionId>
               </nh:result>
            </nh:newPortInResponse>
         </newPortInResponse>
      </ser-root:portInResponse>
   </soapenv:Body>
</soapenv:Envelope>