<soapenv:Envelope xmlns:soapenv="http://schemas.xmlsoap.org/soap/envelope/" xmlns:v1="http://www.colt.net/numberHosting/v1" xmlns:v11="http://www.colt.net/xml/ns/NumberHosting/v1.0" xmlns:v12="http://www.colt.net/xml/ns/cbe/nhm/v1.0">
   <soapenv:Header/>
   <soapenv:Body>
      <v1:bulkNhTransactions>
         <nhTransactionsRequest>
            <v11:nhTransactionsRequest>
               <v11:serviceHeader>
                  <!--Optional:-->
                  <v12:senderSystem>${senderSystem}</v12:senderSystem>
                  <!--Optional:-->
                  <v12:creationTime></v12:creationTime>
               </v11:serviceHeader>
               <!--1 or more repetitions:-->
               <v11:transactions>
                  <v11:nhCustomerTxId></v11:nhCustomerTxId>
                  <v11:nhTxType>${nhTxType6}</v11:nhTxType>
                  <!--Optional:-->
                  <v11:portInDetails>
                     <v12:resellerProfile>
                        <v12:serviceProfile>${serviceProfile6}</v12:serviceProfile>
                        <v12:productID>${productID6}</v12:productID>
                        <v12:Country>${Country6}</v12:Country>
                     </v12:resellerProfile>
                     <!--Optional:-->
                     <v12:customerRef></v12:customerRef>
                     <v12:endCustomerDetails>
                        <!--Optional:-->
                        <v12:endCustomerName>${endCustomerName6}</v12:endCustomerName>
                        <!--Optional:-->
                        <v12:customerType>${customerType6}</v12:customerType>
                        <!--Optional:-->
                        <v12:title></v12:title>
                        <!--Optional:-->
                        <v12:firstName></v12:firstName>
                        <!--Optional:-->
                        <v12:lastName></v12:lastName>
                        <!--Optional:-->
                        <v12:registeredName></v12:registeredName>
                        <!--Optional:-->
                        <v12:customerVATnumber></v12:customerVATnumber>
                        <!--Optional:-->
                        <v12:customerIDNumber></v12:customerIDNumber>
                        <!--Optional:-->
                        <v12:endCustomerDateOfBirth></v12:endCustomerDateOfBirth>
                        <!--Optional:-->
                        <v12:endCustomerLanguage></v12:endCustomerLanguage>
                        <v12:endCustomerAddress>
                           <!--Optional:-->
                           <v12:floorSuite></v12:floorSuite>
                           <!--Optional:-->
                           <v12:flatNumber></v12:flatNumber>
                           <!--Optional:-->
                           <v12:premisesNumber>${premisesNumber6}</v12:premisesNumber>
                           <!--Optional:-->
                           <v12:premisesNumberLetter></v12:premisesNumberLetter>
                           <!--Optional:-->
                           <v12:buildingName></v12:buildingName>
                           <!--Optional:-->
                           <v12:departmentBranch></v12:departmentBranch>
                           <!--Optional:-->
                           <v12:streetName>${streetName6}</v12:streetName>
                           <!--Optional:-->
                           <v12:municipalityName></v12:municipalityName>
                           <!--Optional:-->
                           <v12:cityTown>${cityTown6}</v12:cityTown>
                           <!--Optional:-->
                           <v12:state></v12:state>
                           <v12:postalZipCode>${postalZipCode6}</v12:postalZipCode>
                           <!--Optional:-->
                           <v12:country></v12:country>
                           <!--Optional:-->
                           <v12:poBoxNumber></v12:poBoxNumber>
                           <!--Optional:-->
                           <v12:cifNIF></v12:cifNIF>
                           <!--Optional:-->
                           <v12:extensionNumber></v12:extensionNumber>
                        </v12:endCustomerAddress>
                     </v12:endCustomerDetails>
                     <!--Optional:-->
                     <v12:companyRegistrationNumber></v12:companyRegistrationNumber>
                     <!--Optional:-->
                     <v12:subscriberID></v12:subscriberID>
                     <!--Optional:-->
                     <v12:accessCode></v12:accessCode>
                     <!--Optional:-->
                     <v12:newCustomerAddress>
                        <!--Optional:-->
                        <v12:floorSuite></v12:floorSuite>
                        <!--Optional:-->
                        <v12:flatNumber></v12:flatNumber>
                        <!--Optional:-->
                        <v12:premisesNumber></v12:premisesNumber>
                        <!--Optional:-->
                        <v12:premisesNumberLetter></v12:premisesNumberLetter>
                        <!--Optional:-->
                        <v12:buildingName></v12:buildingName>
                        <!--Optional:-->
                        <v12:departmentBranch></v12:departmentBranch>
                        <!--Optional:-->
                        <v12:streetName></v12:streetName>
                        <!--Optional:-->
                        <v12:municipalityName></v12:municipalityName>
                        <!--Optional:-->
                        <v12:cityTown></v12:cityTown>
                        <!--Optional:-->
                        <v12:state></v12:state>
                        <v12:postalZipCode></v12:postalZipCode>
                        <!--Optional:-->
                        <v12:country></v12:country>
                        <!--Optional:-->
                        <v12:poBoxNumber></v12:poBoxNumber>
                        <!--Optional:-->
                        <v12:cifNIF></v12:cifNIF>
                        <!--Optional:-->
                        <v12:extensionNumber></v12:extensionNumber>
                     </v12:newCustomerAddress>
                     <!--1 or more repetitions:-->
                     <v12:portInNumberDetails>
                        <!--Optional:-->
                        <v12:mainBillingNumber>${mainBillingNumber6}</v12:mainBillingNumber>
                        <v12:cliDetails>
                           <!--Optional:-->
                           <v12:areaCode>${areaCode6}</v12:areaCode>
                           <!--Optional:-->
                           <v12:areaCodeExtn>${areaCodeExtn6}</v12:areaCodeExtn>
                           <!--Optional:-->
                           <v12:rangeStart>${rangeStart6}</v12:rangeStart>
                           <!--Optional:-->
                           <v12:rangeEnd>${rangeEnd6}</v12:rangeEnd>
                           <!--Optional:-->
                           <v12:startFullNumber></v12:startFullNumber>
                           <!--Optional:-->
                           <v12:endFullNumber></v12:endFullNumber>
                        </v12:cliDetails>
                        <!--Optional:-->
                        <v12:currentOperator></v12:currentOperator>
                        <!--Optional:-->
                        <v12:singleLine></v12:singleLine>
                        <!--Optional:-->
                        <v12:multiLine></v12:multiLine>
                        <!--Optional:-->
                        <v12:secretCode></v12:secretCode>
                        <!--Optional:-->
                        <v12:portDate></v12:portDate>
                        <!--Optional:-->
                        <v12:blockingCode></v12:blockingCode>
                        <!--Optional:-->
                        <v12:note></v12:note>
                     </v12:portInNumberDetails>
                     <!--Optional:-->
                     <v12:originalRangeHolder></v12:originalRangeHolder>
                     <v12:portInDate>${portInDate6}</v12:portInDate>
                     <v12:portInWindow>${portInWindow6}</v12:portInWindow>
                     <!--Optional:-->
                     <v12:switchMaintainer>
                        <v12:switchMaintainerFirstName>${switchMaintainerFirstName6}</v12:switchMaintainerFirstName>
                        <v12:switchMaintainerLastName>${switchMaintainerLastName6}</v12:switchMaintainerLastName>
                        <v12:switchMaintainerPhone>${switchMaintainerPhone6}</v12:switchMaintainerPhone>
                        <!--Optional:-->
                        <v12:switchMaintainerMobile></v12:switchMaintainerMobile>
                        <v12:switchMaintainerEmail>${switchMaintainerEmail6}</v12:switchMaintainerEmail>
                        <!--Optional:-->
                        <v12:switchMaintainerFax></v12:switchMaintainerFax>
                     </v12:switchMaintainer>
                     <!--Optional:-->
                     <v12:directoryServicesDetails>
                        <v12:orderType></v12:orderType>
                        <!--Optional:-->
                        <v12:endCustomerName></v12:endCustomerName>
                        <!--Optional:-->
                        <v12:businesssuffix></v12:businesssuffix>
                        <!--Optional:-->
                        <v12:businessDescription></v12:businessDescription>
                        <!--Optional:-->
                        <v12:subHeader></v12:subHeader>
                        <!--Optional:-->
                        <v12:subSubHeader></v12:subSubHeader>
                        <!--Optional:-->
                        <v12:subSubSubHeader></v12:subSubSubHeader>
                        <!--Optional:-->
                        <v12:qualifier></v12:qualifier>
                        <!--Optional:-->
                        <v12:endCustomerAddress>
                           <!--Optional:-->
                           <v12:floorSuite></v12:floorSuite>
                           <!--Optional:-->
                           <v12:flatNumber></v12:flatNumber>
                           <!--Optional:-->
                           <v12:premisesNumber></v12:premisesNumber>
                           <!--Optional:-->
                           <v12:premisesNumberLetter></v12:premisesNumberLetter>
                           <!--Optional:-->
                           <v12:buildingName></v12:buildingName>
                           <!--Optional:-->
                           <v12:departmentBranch></v12:departmentBranch>
                           <!--Optional:-->
                           <v12:streetName></v12:streetName>
                           <!--Optional:-->
                           <v12:municipalityName></v12:municipalityName>
                           <!--Optional:-->
                           <v12:cityTown></v12:cityTown>
                           <!--Optional:-->
                           <v12:state></v12:state>
                           <v12:postalZipCode></v12:postalZipCode>
                           <!--Optional:-->
                           <v12:country></v12:country>
                           <!--Optional:-->
                           <v12:poBoxNumber></v12:poBoxNumber>
                           <!--Optional:-->
                           <v12:cifNIF></v12:cifNIF>
                           <!--Optional:-->
                           <v12:extensionNumber></v12:extensionNumber>
                        </v12:endCustomerAddress>
                        <!--Optional:-->
                        <v12:telephoneNumber></v12:telephoneNumber>
                        <!--Optional:-->
                        <v12:lineType></v12:lineType>
                        <!--Optional:-->
                        <v12:entryType></v12:entryType>
                        <!--Optional:-->
                        <v12:tariff></v12:tariff>
                        <!--Optional:-->
                        <v12:listingCategory></v12:listingCategory>
                        <!--Optional:-->
                        <v12:typeFace></v12:typeFace>
                        <!--Optional:-->
                        <v12:priority></v12:priority>
                        <!--Optional:-->
                        <v12:listingType></v12:listingType>
                        <!--Optional:-->
                        <v12:additionalIinstructions></v12:additionalIinstructions>
                        <!--Optional:-->
                        <v12:companyRegistrationNumber></v12:companyRegistrationNumber>
                        <!--Optional:-->
                        <v12:customerVATnumber></v12:customerVATnumber>
                        <!--Optional:-->
                        <v12:companyEmailAddress></v12:companyEmailAddress>
                        <!--Optional:-->
                        <v12:codeAPE></v12:codeAPE>
                        <!--Optional:-->
                        <v12:usoWPStatusFlag></v12:usoWPStatusFlag>
                        <!--Optional:-->
                        <v12:otheMediaStatusFlag></v12:otheMediaStatusFlag>
                        <!--Optional:-->
                        <v12:usoDAStatusFlag></v12:usoDAStatusFlag>
                        <!--Optional:-->
                        <v12:salesFlag></v12:salesFlag>
                        <!--Optional:-->
                        <v12:reverseQueryFlag></v12:reverseQueryFlag>
                        <!--Optional:-->
                        <v12:serviceType></v12:serviceType>
                        <!--Optional:-->
                        <v12:deviceTypeId></v12:deviceTypeId>
                        <!--Optional:-->
                        <v12:listingLanguage></v12:listingLanguage>
                        <!--Optional:-->
                        <v12:areaCode></v12:areaCode>
                        <!--Optional:-->
                        <v12:areaCodeExtn></v12:areaCodeExtn>
                        <!--Optional:-->
                        <v12:rangeStart></v12:rangeStart>
                        <!--Optional:-->
                        <v12:rangeEnd></v12:rangeEnd>
                        <!--Optional:-->
                        <v12:startFullNumber></v12:startFullNumber>
                        <!--Optional:-->
                        <v12:endFullNumber></v12:endFullNumber>
                        <!--Optional:-->
                        <v12:changeType></v12:changeType>
                        <!--Optional:-->
                        <v12:newTelephoneNumber></v12:newTelephoneNumber>
                        <!--Optional:-->
                        <v12:firstName></v12:firstName>
                        <!--Optional:-->
                        <v12:middleName></v12:middleName>
                        <!--Optional:-->
                        <v12:lastName></v12:lastName>
                        <!--Optional:-->
                        <v12:addtionalInfo></v12:addtionalInfo>
                        <!--Optional:-->
                        <v12:publicationCode></v12:publicationCode>
                        <!--Optional:-->
                        <v12:propertyIndicator></v12:propertyIndicator>
                        <!--Optional:-->
                        <v12:HouseNumberAddition></v12:HouseNumberAddition>
                        <!--Optional:-->
                        <v12:usageType></v12:usageType>
                        <!--Optional:-->
                        <v12:networkType></v12:networkType>
                        <!--Optional:-->
                        <v12:directoryInfoNotes></v12:directoryInfoNotes>
                        <!--Optional:-->
                        <v12:publishInDirectory></v12:publishInDirectory>
                        <!--Optional:-->
                        <v12:amalgamateWithVAT></v12:amalgamateWithVAT>
                        <!--Optional:-->
                        <v12:searchOnTelephoneOnly></v12:searchOnTelephoneOnly>
                        <!--Optional:-->
                        <v12:allowAdvertisingEmails></v12:allowAdvertisingEmails>
                        <!--Optional:-->
                        <v12:allowAdvertisingCalls></v12:allowAdvertisingCalls>
                        <!--Optional:-->
                        <v12:flag1></v12:flag1>
                        <!--Optional:-->
                        <v12:flag2></v12:flag2>
                        <!--Optional:-->
                        <v12:flag3></v12:flag3>
                        <!--Optional:-->
                        <v12:flag4></v12:flag4>
                        <!--Optional:-->
                        <v12:flag5></v12:flag5>
                        <!--Optional:-->
                        <v12:flag6></v12:flag6>
                        <!--Optional:-->
                        <v12:flag7></v12:flag7>
                        <!--Optional:-->
                        <v12:flag8></v12:flag8>
                     </v12:directoryServicesDetails>
                     <!--Optional:-->
                     <v12:userName>${userName6}</v12:userName>
                     <!--Optional:-->
                     <v12:notes></v12:notes>
                     <!--Optional:-->
                     <v12:portType></v12:portType>
                     <!--Optional:-->
                     <v12:additionalCustRef1></v12:additionalCustRef1>
                     <!--Optional:-->
                     <v12:additionalCustRef2></v12:additionalCustRef2>
                     <!--Optional:-->
                     <v12:additionalCustRef3></v12:additionalCustRef3>
                  </v11:portInDetails>
                  <!--Optional:-->
                 </v11:transactions>
                                <!--1 or more repetitions:-->

                             <v11:transactions>
                  <v11:nhCustomerTxId></v11:nhCustomerTxId>
                  <v11:nhTxType>${nhTxType7}</v11:nhTxType>
                  <!--Optional:-->
                  <v11:portInDetails>
                     <v12:resellerProfile>
                        <v12:serviceProfile>${serviceProfile7}</v12:serviceProfile>
                        <v12:productID>${productID7}</v12:productID>
                        <v12:Country>${Country}</v12:Country>
                     </v12:resellerProfile>
                     <!--Optional:-->
                     <v12:customerRef></v12:customerRef>
                     <v12:endCustomerDetails>
                        <!--Optional:-->
                        <v12:endCustomerName>${endCustomerName7}</v12:endCustomerName>
                        <!--Optional:-->
                        <v12:customerType>${customerType7}</v12:customerType>
                        <!--Optional:-->
                        <v12:title></v12:title>
                        <!--Optional:-->
                        <v12:firstName></v12:firstName>
                        <!--Optional:-->
                        <v12:lastName></v12:lastName>
                        <!--Optional:-->
                        <v12:registeredName></v12:registeredName>
                        <!--Optional:-->
                        <v12:customerVATnumber></v12:customerVATnumber>
                        <!--Optional:-->
                        <v12:customerIDNumber></v12:customerIDNumber>
                        <!--Optional:-->
                        <v12:endCustomerDateOfBirth></v12:endCustomerDateOfBirth>
                        <!--Optional:-->
                        <v12:endCustomerLanguage></v12:endCustomerLanguage>
                        <v12:endCustomerAddress>
                           <!--Optional:-->
                           <v12:floorSuite></v12:floorSuite>
                           <!--Optional:-->
                           <v12:flatNumber></v12:flatNumber>
                           <!--Optional:-->
                           <v12:premisesNumber>${premisesNumber7}</v12:premisesNumber>
                           <!--Optional:-->
                           <v12:premisesNumberLetter></v12:premisesNumberLetter>
                           <!--Optional:-->
                           <v12:buildingName></v12:buildingName>
                           <!--Optional:-->
                           <v12:departmentBranch></v12:departmentBranch>
                           <!--Optional:-->
                           <v12:streetName>${streetName7}</v12:streetName>
                           <!--Optional:-->
                           <v12:municipalityName></v12:municipalityName>
                           <!--Optional:-->
                           <v12:cityTown>${cityTown7}</v12:cityTown>
                           <!--Optional:-->
                           <v12:state></v12:state>
                           <v12:postalZipCode>${postalZipCode7}</v12:postalZipCode>
                           <!--Optional:-->
                           <v12:country></v12:country>
                           <!--Optional:-->
                           <v12:poBoxNumber></v12:poBoxNumber>
                           <!--Optional:-->
                           <v12:cifNIF></v12:cifNIF>
                           <!--Optional:-->
                           <v12:extensionNumber></v12:extensionNumber>
                        </v12:endCustomerAddress>
                     </v12:endCustomerDetails>
                     <!--Optional:-->
                     <v12:companyRegistrationNumber></v12:companyRegistrationNumber>
                     <!--Optional:-->
                     <v12:subscriberID></v12:subscriberID>
                     <!--Optional:-->
                     <v12:accessCode></v12:accessCode>
                     <!--Optional:-->
                     <v12:newCustomerAddress>
                        <!--Optional:-->
                        <v12:floorSuite></v12:floorSuite>
                        <!--Optional:-->
                        <v12:flatNumber></v12:flatNumber>
                        <!--Optional:-->
                        <v12:premisesNumber></v12:premisesNumber>
                        <!--Optional:-->
                        <v12:premisesNumberLetter></v12:premisesNumberLetter>
                        <!--Optional:-->
                        <v12:buildingName></v12:buildingName>
                        <!--Optional:-->
                        <v12:departmentBranch></v12:departmentBranch>
                        <!--Optional:-->
                        <v12:streetName></v12:streetName>
                        <!--Optional:-->
                        <v12:municipalityName></v12:municipalityName>
                        <!--Optional:-->
                        <v12:cityTown></v12:cityTown>
                        <!--Optional:-->
                        <v12:state></v12:state>
                        <v12:postalZipCode></v12:postalZipCode>
                        <!--Optional:-->
                        <v12:country></v12:country>
                        <!--Optional:-->
                        <v12:poBoxNumber></v12:poBoxNumber>
                        <!--Optional:-->
                        <v12:cifNIF></v12:cifNIF>
                        <!--Optional:-->
                        <v12:extensionNumber></v12:extensionNumber>
                     </v12:newCustomerAddress>
                     <!--1 or more repetitions:-->
                     <v12:portInNumberDetails>
                        <!--Optional:-->
                        <v12:mainBillingNumber>${mainBillingNumber7}</v12:mainBillingNumber>
                        <v12:cliDetails>
                           <!--Optional:-->
                           <v12:areaCode>${areaCode7}</v12:areaCode>
                           <!--Optional:-->
                           <v12:areaCodeExtn>${areaCodeExtn7}</v12:areaCodeExtn>
                           <!--Optional:-->
                           <v12:rangeStart>${rangeStart7}</v12:rangeStart>
                           <!--Optional:-->
                           <v12:rangeEnd>${rangeEnd7}</v12:rangeEnd>
                           <!--Optional:-->
                           <v12:startFullNumber></v12:startFullNumber>
                           <!--Optional:-->
                           <v12:endFullNumber></v12:endFullNumber>
                        </v12:cliDetails>
                        <!--Optional:-->
                        <v12:currentOperator></v12:currentOperator>
                        <!--Optional:-->
                        <v12:singleLine></v12:singleLine>
                        <!--Optional:-->
                        <v12:multiLine></v12:multiLine>
                        <!--Optional:-->
                        <v12:secretCode></v12:secretCode>
                        <!--Optional:-->
                        <v12:portDate></v12:portDate>
                        <!--Optional:-->
                        <v12:blockingCode></v12:blockingCode>
                        <!--Optional:-->
                        <v12:note></v12:note>
                     </v12:portInNumberDetails>
                     <!--Optional:-->
                     <v12:originalRangeHolder></v12:originalRangeHolder>
                     <v12:portInDate>${portInDate7}</v12:portInDate>
                     <v12:portInWindow>${portInWindow7}</v12:portInWindow>
                     <!--Optional:-->
                     <v12:switchMaintainer>
                        <v12:switchMaintainerFirstName>${switchMaintainerFirstName7}</v12:switchMaintainerFirstName>
                        <v12:switchMaintainerLastName>${switchMaintainerLastName7}</v12:switchMaintainerLastName>
                        <v12:switchMaintainerPhone>${switchMaintainerPhone7}</v12:switchMaintainerPhone>
                        <!--Optional:-->
                        <v12:switchMaintainerMobile></v12:switchMaintainerMobile>
                        <v12:switchMaintainerEmail>${switchMaintainerEmail7}</v12:switchMaintainerEmail>
                        <!--Optional:-->
                        <v12:switchMaintainerFax></v12:switchMaintainerFax>
                     </v12:switchMaintainer>
                     <!--Optional:-->
                     <v12:directoryServicesDetails>
                        <v12:orderType></v12:orderType>
                        <!--Optional:-->
                        <v12:endCustomerName></v12:endCustomerName>
                        <!--Optional:-->
                        <v12:businesssuffix></v12:businesssuffix>
                        <!--Optional:-->
                        <v12:businessDescription></v12:businessDescription>
                        <!--Optional:-->
                        <v12:subHeader></v12:subHeader>
                        <!--Optional:-->
                        <v12:subSubHeader></v12:subSubHeader>
                        <!--Optional:-->
                        <v12:subSubSubHeader></v12:subSubSubHeader>
                        <!--Optional:-->
                        <v12:qualifier></v12:qualifier>
                        <!--Optional:-->
                        <v12:endCustomerAddress>
                           <!--Optional:-->
                           <v12:floorSuite></v12:floorSuite>
                           <!--Optional:-->
                           <v12:flatNumber></v12:flatNumber>
                           <!--Optional:-->
                           <v12:premisesNumber></v12:premisesNumber>
                           <!--Optional:-->
                           <v12:premisesNumberLetter></v12:premisesNumberLetter>
                           <!--Optional:-->
                           <v12:buildingName></v12:buildingName>
                           <!--Optional:-->
                           <v12:departmentBranch></v12:departmentBranch>
                           <!--Optional:-->
                           <v12:streetName></v12:streetName>
                           <!--Optional:-->
                           <v12:municipalityName></v12:municipalityName>
                           <!--Optional:-->
                           <v12:cityTown></v12:cityTown>
                           <!--Optional:-->
                           <v12:state></v12:state>
                           <v12:postalZipCode></v12:postalZipCode>
                           <!--Optional:-->
                           <v12:country></v12:country>
                           <!--Optional:-->
                           <v12:poBoxNumber></v12:poBoxNumber>
                           <!--Optional:-->
                           <v12:cifNIF></v12:cifNIF>
                           <!--Optional:-->
                           <v12:extensionNumber></v12:extensionNumber>
                        </v12:endCustomerAddress>
                        <!--Optional:-->
                        <v12:telephoneNumber></v12:telephoneNumber>
                        <!--Optional:-->
                        <v12:lineType></v12:lineType>
                        <!--Optional:-->
                        <v12:entryType></v12:entryType>
                        <!--Optional:-->
                        <v12:tariff></v12:tariff>
                        <!--Optional:-->
                        <v12:listingCategory></v12:listingCategory>
                        <!--Optional:-->
                        <v12:typeFace></v12:typeFace>
                        <!--Optional:-->
                        <v12:priority></v12:priority>
                        <!--Optional:-->
                        <v12:listingType></v12:listingType>
                        <!--Optional:-->
                        <v12:additionalIinstructions></v12:additionalIinstructions>
                        <!--Optional:-->
                        <v12:companyRegistrationNumber></v12:companyRegistrationNumber>
                        <!--Optional:-->
                        <v12:customerVATnumber></v12:customerVATnumber>
                        <!--Optional:-->
                        <v12:companyEmailAddress></v12:companyEmailAddress>
                        <!--Optional:-->
                        <v12:codeAPE></v12:codeAPE>
                        <!--Optional:-->
                        <v12:usoWPStatusFlag></v12:usoWPStatusFlag>
                        <!--Optional:-->
                        <v12:otheMediaStatusFlag></v12:otheMediaStatusFlag>
                        <!--Optional:-->
                        <v12:usoDAStatusFlag></v12:usoDAStatusFlag>
                        <!--Optional:-->
                        <v12:salesFlag></v12:salesFlag>
                        <!--Optional:-->
                        <v12:reverseQueryFlag></v12:reverseQueryFlag>
                        <!--Optional:-->
                        <v12:serviceType></v12:serviceType>
                        <!--Optional:-->
                        <v12:deviceTypeId></v12:deviceTypeId>
                        <!--Optional:-->
                        <v12:listingLanguage></v12:listingLanguage>
                        <!--Optional:-->
                        <v12:areaCode></v12:areaCode>
                        <!--Optional:-->
                        <v12:areaCodeExtn></v12:areaCodeExtn>
                        <!--Optional:-->
                        <v12:rangeStart></v12:rangeStart>
                        <!--Optional:-->
                        <v12:rangeEnd></v12:rangeEnd>
                        <!--Optional:-->
                        <v12:startFullNumber></v12:startFullNumber>
                        <!--Optional:-->
                        <v12:endFullNumber></v12:endFullNumber>
                        <!--Optional:-->
                        <v12:changeType></v12:changeType>
                        <!--Optional:-->
                        <v12:newTelephoneNumber></v12:newTelephoneNumber>
                        <!--Optional:-->
                        <v12:firstName></v12:firstName>
                        <!--Optional:-->
                        <v12:middleName></v12:middleName>
                        <!--Optional:-->
                        <v12:lastName></v12:lastName>
                        <!--Optional:-->
                        <v12:addtionalInfo></v12:addtionalInfo>
                        <!--Optional:-->
                        <v12:publicationCode></v12:publicationCode>
                        <!--Optional:-->
                        <v12:propertyIndicator></v12:propertyIndicator>
                        <!--Optional:-->
                        <v12:HouseNumberAddition></v12:HouseNumberAddition>
                        <!--Optional:-->
                        <v12:usageType></v12:usageType>
                        <!--Optional:-->
                        <v12:networkType></v12:networkType>
                        <!--Optional:-->
                        <v12:directoryInfoNotes></v12:directoryInfoNotes>
                        <!--Optional:-->
                        <v12:publishInDirectory></v12:publishInDirectory>
                        <!--Optional:-->
                        <v12:amalgamateWithVAT></v12:amalgamateWithVAT>
                        <!--Optional:-->
                        <v12:searchOnTelephoneOnly></v12:searchOnTelephoneOnly>
                        <!--Optional:-->
                        <v12:allowAdvertisingEmails></v12:allowAdvertisingEmails>
                        <!--Optional:-->
                        <v12:allowAdvertisingCalls></v12:allowAdvertisingCalls>
                        <!--Optional:-->
                        <v12:flag1></v12:flag1>
                        <!--Optional:-->
                        <v12:flag2></v12:flag2>
                        <!--Optional:-->
                        <v12:flag3></v12:flag3>
                        <!--Optional:-->
                        <v12:flag4></v12:flag4>
                        <!--Optional:-->
                        <v12:flag5></v12:flag5>
                        <!--Optional:-->
                        <v12:flag6></v12:flag6>
                        <!--Optional:-->
                        <v12:flag7></v12:flag7>
                        <!--Optional:-->
                        <v12:flag8></v12:flag8>
                     </v12:directoryServicesDetails>
                     <!--Optional:-->
                     <v12:userName>${userName7}</v12:userName>
                     <!--Optional:-->
                     <v12:notes></v12:notes>
                     <!--Optional:-->
                     <v12:portType></v12:portType>
                     <!--Optional:-->
                     <v12:additionalCustRef1></v12:additionalCustRef1>
                     <!--Optional:-->
                     <v12:additionalCustRef2></v12:additionalCustRef2>
                     <!--Optional:-->
                     <v12:additionalCustRef3></v12:additionalCustRef3>
                  </v11:portInDetails>
                  <!--Optional:-->
                 </v11:transactions>
                     <!--1 or more repetitions:-->
                 <v11:transactions>
                  <v11:nhCustomerTxId></v11:nhCustomerTxId>
                  <v11:nhTxType>${nhTxType8}</v11:nhTxType>
                  <!--Optional:-->
                  <v11:portInDetails>
                     <v12:resellerProfile>
                        <v12:serviceProfile>${serviceProfile8}</v12:serviceProfile>
                        <v12:productID>${productID8}</v12:productID>
                        <v12:Country>${Country8}</v12:Country>
                     </v12:resellerProfile>
                     <!--Optional:-->
                     <v12:customerRef></v12:customerRef>
                     <v12:endCustomerDetails>
                        <!--Optional:-->
                        <v12:endCustomerName>${endCustomerName8}</v12:endCustomerName>
                        <!--Optional:-->
                        <v12:customerType>${customerType8}</v12:customerType>
                        <!--Optional:-->
                        <v12:title></v12:title>
                        <!--Optional:-->
                        <v12:firstName></v12:firstName>
                        <!--Optional:-->
                        <v12:lastName></v12:lastName>
                        <!--Optional:-->
                        <v12:registeredName></v12:registeredName>
                        <!--Optional:-->
                        <v12:customerVATnumber></v12:customerVATnumber>
                        <!--Optional:-->
                        <v12:customerIDNumber></v12:customerIDNumber>
                        <!--Optional:-->
                        <v12:endCustomerDateOfBirth></v12:endCustomerDateOfBirth>
                        <!--Optional:-->
                        <v12:endCustomerLanguage></v12:endCustomerLanguage>
                        <v12:endCustomerAddress>
                           <!--Optional:-->
                           <v12:floorSuite></v12:floorSuite>
                           <!--Optional:-->
                           <v12:flatNumber></v12:flatNumber>
                           <!--Optional:-->
                           <v12:premisesNumber>${premisesNumber8}</v12:premisesNumber>
                           <!--Optional:-->
                           <v12:premisesNumberLetter></v12:premisesNumberLetter>
                           <!--Optional:-->
                           <v12:buildingName></v12:buildingName>
                           <!--Optional:-->
                           <v12:departmentBranch></v12:departmentBranch>
                           <!--Optional:-->
                           <v12:streetName>${streetName8}</v12:streetName>
                           <!--Optional:-->
                           <v12:municipalityName></v12:municipalityName>
                           <!--Optional:-->
                           <v12:cityTown>${cityTown8}</v12:cityTown>
                           <!--Optional:-->
                           <v12:state></v12:state>
                           <v12:postalZipCode>${postalZipCode8}</v12:postalZipCode>
                           <!--Optional:-->
                           <v12:country></v12:country>
                           <!--Optional:-->
                           <v12:poBoxNumber></v12:poBoxNumber>
                           <!--Optional:-->
                           <v12:cifNIF></v12:cifNIF>
                           <!--Optional:-->
                           <v12:extensionNumber></v12:extensionNumber>
                        </v12:endCustomerAddress>
                     </v12:endCustomerDetails>
                     <!--Optional:-->
                     <v12:companyRegistrationNumber></v12:companyRegistrationNumber>
                     <!--Optional:-->
                     <v12:subscriberID></v12:subscriberID>
                     <!--Optional:-->
                     <v12:accessCode></v12:accessCode>
                     <!--Optional:-->
                     <v12:newCustomerAddress>
                        <!--Optional:-->
                        <v12:floorSuite></v12:floorSuite>
                        <!--Optional:-->
                        <v12:flatNumber></v12:flatNumber>
                        <!--Optional:-->
                        <v12:premisesNumber></v12:premisesNumber>
                        <!--Optional:-->
                        <v12:premisesNumberLetter></v12:premisesNumberLetter>
                        <!--Optional:-->
                        <v12:buildingName></v12:buildingName>
                        <!--Optional:-->
                        <v12:departmentBranch></v12:departmentBranch>
                        <!--Optional:-->
                        <v12:streetName></v12:streetName>
                        <!--Optional:-->
                        <v12:municipalityName></v12:municipalityName>
                        <!--Optional:-->
                        <v12:cityTown></v12:cityTown>
                        <!--Optional:-->
                        <v12:state></v12:state>
                        <v12:postalZipCode></v12:postalZipCode>
                        <!--Optional:-->
                        <v12:country></v12:country>
                        <!--Optional:-->
                        <v12:poBoxNumber></v12:poBoxNumber>
                        <!--Optional:-->
                        <v12:cifNIF></v12:cifNIF>
                        <!--Optional:-->
                        <v12:extensionNumber></v12:extensionNumber>
                     </v12:newCustomerAddress>
                     <!--1 or more repetitions:-->
                     <v12:portInNumberDetails>
                        <!--Optional:-->
                        <v12:mainBillingNumber>${mainBillingNumber8}</v12:mainBillingNumber>
                        <v12:cliDetails>
                           <!--Optional:-->
                           <v12:areaCode>${areaCode8}</v12:areaCode>
                           <!--Optional:-->
                           <v12:areaCodeExtn>${areaCodeExtn8}</v12:areaCodeExtn>
                           <!--Optional:-->
                           <v12:rangeStart>${rangeStart8}</v12:rangeStart>
                           <!--Optional:-->
                           <v12:rangeEnd>${rangeEnd8}</v12:rangeEnd>
                           <!--Optional:-->
                           <v12:startFullNumber></v12:startFullNumber>
                           <!--Optional:-->
                           <v12:endFullNumber></v12:endFullNumber>
                        </v12:cliDetails>
                        <!--Optional:-->
                        <v12:currentOperator></v12:currentOperator>
                        <!--Optional:-->
                        <v12:singleLine></v12:singleLine>
                        <!--Optional:-->
                        <v12:multiLine></v12:multiLine>
                        <!--Optional:-->
                        <v12:secretCode></v12:secretCode>
                        <!--Optional:-->
                        <v12:portDate></v12:portDate>
                        <!--Optional:-->
                        <v12:blockingCode></v12:blockingCode>
                        <!--Optional:-->
                        <v12:note></v12:note>
                     </v12:portInNumberDetails>
                     <!--Optional:-->
                     <v12:originalRangeHolder></v12:originalRangeHolder>
                     <v12:portInDate>${portInDate8}</v12:portInDate>
                     <v12:portInWindow>${portInWindow8}</v12:portInWindow>
                     <!--Optional:-->
                     <v12:switchMaintainer>
                        <v12:switchMaintainerFirstName>${switchMaintainerFirstName8}</v12:switchMaintainerFirstName>
                        <v12:switchMaintainerLastName>${switchMaintainerLastName8}</v12:switchMaintainerLastName>
                        <v12:switchMaintainerPhone>${switchMaintainerPhone8}</v12:switchMaintainerPhone>
                        <!--Optional:-->
                        <v12:switchMaintainerMobile></v12:switchMaintainerMobile>
                        <v12:switchMaintainerEmail>${switchMaintainerEmail8}</v12:switchMaintainerEmail>
                        <!--Optional:-->
                        <v12:switchMaintainerFax></v12:switchMaintainerFax>
                     </v12:switchMaintainer>
                     <!--Optional:-->
                     <v12:directoryServicesDetails>
                        <v12:orderType></v12:orderType>
                        <!--Optional:-->
                        <v12:endCustomerName></v12:endCustomerName>
                        <!--Optional:-->
                        <v12:businesssuffix></v12:businesssuffix>
                        <!--Optional:-->
                        <v12:businessDescription></v12:businessDescription>
                        <!--Optional:-->
                        <v12:subHeader></v12:subHeader>
                        <!--Optional:-->
                        <v12:subSubHeader></v12:subSubHeader>
                        <!--Optional:-->
                        <v12:subSubSubHeader></v12:subSubSubHeader>
                        <!--Optional:-->
                        <v12:qualifier></v12:qualifier>
                        <!--Optional:-->
                        <v12:endCustomerAddress>
                           <!--Optional:-->
                           <v12:floorSuite></v12:floorSuite>
                           <!--Optional:-->
                           <v12:flatNumber></v12:flatNumber>
                           <!--Optional:-->
                           <v12:premisesNumber></v12:premisesNumber>
                           <!--Optional:-->
                           <v12:premisesNumberLetter></v12:premisesNumberLetter>
                           <!--Optional:-->
                           <v12:buildingName></v12:buildingName>
                           <!--Optional:-->
                           <v12:departmentBranch></v12:departmentBranch>
                           <!--Optional:-->
                           <v12:streetName></v12:streetName>
                           <!--Optional:-->
                           <v12:municipalityName></v12:municipalityName>
                           <!--Optional:-->
                           <v12:cityTown></v12:cityTown>
                           <!--Optional:-->
                           <v12:state></v12:state>
                           <v12:postalZipCode></v12:postalZipCode>
                           <!--Optional:-->
                           <v12:country></v12:country>
                           <!--Optional:-->
                           <v12:poBoxNumber></v12:poBoxNumber>
                           <!--Optional:-->
                           <v12:cifNIF></v12:cifNIF>
                           <!--Optional:-->
                           <v12:extensionNumber></v12:extensionNumber>
                        </v12:endCustomerAddress>
                        <!--Optional:-->
                        <v12:telephoneNumber></v12:telephoneNumber>
                        <!--Optional:-->
                        <v12:lineType></v12:lineType>
                        <!--Optional:-->
                        <v12:entryType></v12:entryType>
                        <!--Optional:-->
                        <v12:tariff></v12:tariff>
                        <!--Optional:-->
                        <v12:listingCategory></v12:listingCategory>
                        <!--Optional:-->
                        <v12:typeFace></v12:typeFace>
                        <!--Optional:-->
                        <v12:priority></v12:priority>
                        <!--Optional:-->
                        <v12:listingType></v12:listingType>
                        <!--Optional:-->
                        <v12:additionalIinstructions></v12:additionalIinstructions>
                        <!--Optional:-->
                        <v12:companyRegistrationNumber></v12:companyRegistrationNumber>
                        <!--Optional:-->
                        <v12:customerVATnumber></v12:customerVATnumber>
                        <!--Optional:-->
                        <v12:companyEmailAddress></v12:companyEmailAddress>
                        <!--Optional:-->
                        <v12:codeAPE></v12:codeAPE>
                        <!--Optional:-->
                        <v12:usoWPStatusFlag></v12:usoWPStatusFlag>
                        <!--Optional:-->
                        <v12:otheMediaStatusFlag></v12:otheMediaStatusFlag>
                        <!--Optional:-->
                        <v12:usoDAStatusFlag></v12:usoDAStatusFlag>
                        <!--Optional:-->
                        <v12:salesFlag></v12:salesFlag>
                        <!--Optional:-->
                        <v12:reverseQueryFlag></v12:reverseQueryFlag>
                        <!--Optional:-->
                        <v12:serviceType></v12:serviceType>
                        <!--Optional:-->
                        <v12:deviceTypeId></v12:deviceTypeId>
                        <!--Optional:-->
                        <v12:listingLanguage></v12:listingLanguage>
                        <!--Optional:-->
                        <v12:areaCode></v12:areaCode>
                        <!--Optional:-->
                        <v12:areaCodeExtn></v12:areaCodeExtn>
                        <!--Optional:-->
                        <v12:rangeStart></v12:rangeStart>
                        <!--Optional:-->
                        <v12:rangeEnd></v12:rangeEnd>
                        <!--Optional:-->
                        <v12:startFullNumber></v12:startFullNumber>
                        <!--Optional:-->
                        <v12:endFullNumber></v12:endFullNumber>
                        <!--Optional:-->
                        <v12:changeType></v12:changeType>
                        <!--Optional:-->
                        <v12:newTelephoneNumber></v12:newTelephoneNumber>
                        <!--Optional:-->
                        <v12:firstName></v12:firstName>
                        <!--Optional:-->
                        <v12:middleName></v12:middleName>
                        <!--Optional:-->
                        <v12:lastName></v12:lastName>
                        <!--Optional:-->
                        <v12:addtionalInfo></v12:addtionalInfo>
                        <!--Optional:-->
                        <v12:publicationCode></v12:publicationCode>
                        <!--Optional:-->
                        <v12:propertyIndicator></v12:propertyIndicator>
                        <!--Optional:-->
                        <v12:HouseNumberAddition></v12:HouseNumberAddition>
                        <!--Optional:-->
                        <v12:usageType></v12:usageType>
                        <!--Optional:-->
                        <v12:networkType></v12:networkType>
                        <!--Optional:-->
                        <v12:directoryInfoNotes></v12:directoryInfoNotes>
                        <!--Optional:-->
                        <v12:publishInDirectory></v12:publishInDirectory>
                        <!--Optional:-->
                        <v12:amalgamateWithVAT></v12:amalgamateWithVAT>
                        <!--Optional:-->
                        <v12:searchOnTelephoneOnly></v12:searchOnTelephoneOnly>
                        <!--Optional:-->
                        <v12:allowAdvertisingEmails></v12:allowAdvertisingEmails>
                        <!--Optional:-->
                        <v12:allowAdvertisingCalls></v12:allowAdvertisingCalls>
                        <!--Optional:-->
                        <v12:flag1></v12:flag1>
                        <!--Optional:-->
                        <v12:flag2></v12:flag2>
                        <!--Optional:-->
                        <v12:flag3></v12:flag3>
                        <!--Optional:-->
                        <v12:flag4></v12:flag4>
                        <!--Optional:-->
                        <v12:flag5></v12:flag5>
                        <!--Optional:-->
                        <v12:flag6></v12:flag6>
                        <!--Optional:-->
                        <v12:flag7></v12:flag7>
                        <!--Optional:-->
                        <v12:flag8></v12:flag8>
                     </v12:directoryServicesDetails>
                     <!--Optional:-->
                     <v12:userName>${userName8}</v12:userName>
                     <!--Optional:-->
                     <v12:notes></v12:notes>
                     <!--Optional:-->
                     <v12:portType></v12:portType>
                     <!--Optional:-->
                     <v12:additionalCustRef1></v12:additionalCustRef1>
                     <!--Optional:-->
                     <v12:additionalCustRef2></v12:additionalCustRef2>
                     <!--Optional:-->
                     <v12:additionalCustRef3></v12:additionalCustRef3>
                  </v11:portInDetails>
                  <!--Optional:-->
                 </v11:transactions>
            </v11:nhTransactionsRequest>
         </nhTransactionsRequest>
      </v1:bulkNhTransactions>
   </soapenv:Body>
</soapenv:Envelope>