"Test Suite","Test Case","Test Step","Step Type","Step Status","Result message","Execution Date"
"NHTestSuite","NumberActivationTestcase","NumberActivationwithAddress","request","OK","Colt NMTS API","16-Sep-2020 11_53",
"NHTestSuite","NumberActivationTestcase","NumberActivationwithAddress","request","OK","Colt NMTS API","16-Sep-2020 11_53",
"NHTestSuite","NumberActivationTestcase","NumberActivationwithAddress","request","OK","Colt NMTS API","16-Sep-2020 11_53",
"NHTestSuite","NumberActivationTestcase","NumberActivationwithAddress","request","OK","Colt NMTS API","16-Sep-2020 11_53",
"NHTestSuite","NumberActivationTestcase","NumberActivationwithAddress","request","FAILED","Colt NMTS API","16-Sep-2020 11_53",
"NHTestSuite","NumberActivationTestcase","GroovyForExcel","groovy","FAILED","Colt NMTS API","16-Sep-2020 11_53",