"Test Suite","Test Case","Test Step","Step Type","Step Status","Result message","Execution Date"
"NHTestSuite","NumberActivationTestcase","NumberActivationwithAddress","request","OK","Colt NMTS API","08-Jul-2020 15_03",
"NHTestSuite","NumberActivationTestcase","NumberActivationWithoutAddress","request","OK","Colt NMTS API","08-Jul-2020 15_03",
"NHTestSuite","NumberActivationTestcase","NumberActivationwithAddress","request","OK","Colt NMTS API","08-Jul-2020 15_03",
"NHTestSuite","NumberActivationTestcase","NumberActivationWithoutAddress","request","OK","Colt NMTS API","08-Jul-2020 15_03",
"NHTestSuite","NumberActivationTestcase","NumberActivationwithAddress","request","OK","Colt NMTS API","08-Jul-2020 15_03",
"NHTestSuite","NumberActivationTestcase","NumberActivationWithoutAddress","request","FAILED","Colt NMTS API","08-Jul-2020 15_03",
"NHTestSuite","NumberActivationTestcase","GroovyForExcel","groovy","FAILED","Colt NMTS API","08-Jul-2020 15_03",