"Test Suite","Test Case","Test Step","Step Type","Step Status","Result message","Execution Date"
"NHTestSuite","NumberActivationTestcase","NumberActivationwithAddress","request","OK","Colt NMTS API","15-Jul-2020 10_49",
"NHTestSuite","NumberActivationTestcase","NumberActivationwithAddress","request","OK","Colt NMTS API","15-Jul-2020 10_49",
"NHTestSuite","NumberActivationTestcase","NumberActivationwithAddress","request","OK","Colt NMTS API","15-Jul-2020 10_49",
"NHTestSuite","NumberActivationTestcase","NumberActivationwithAddress","request","OK","Colt NMTS API","15-Jul-2020 10_49",
"NHTestSuite","NumberActivationTestcase","NumberActivationwithAddress","request","OK","Colt NMTS API","15-Jul-2020 10_49",
"NHTestSuite","NumberActivationTestcase","NumberActivationwithAddress","request","OK","Colt NMTS API","15-Jul-2020 10_49",
"NHTestSuite","NumberActivationTestcase","NumberActivationwithAddress","request","OK","Colt NMTS API","15-Jul-2020 10_49",
"NHTestSuite","NumberActivationTestcase","NumberActivationwithAddress","request","OK","Colt NMTS API","15-Jul-2020 10_49",
"NHTestSuite","NumberActivationTestcase","NumberActivationwithAddress","request","OK","Colt NMTS API","15-Jul-2020 10_49",
"NHTestSuite","NumberActivationTestcase","NumberActivationwithAddress","request","OK","Colt NMTS API","15-Jul-2020 10_49",
"NHTestSuite","NumberActivationTestcase","NumberActivationwithAddress","request","FAILED","Colt NMTS API","15-Jul-2020 10_49",
"NHTestSuite","NumberActivationTestcase","GroovyForExcel","groovy","FAILED","Colt NMTS API","15-Jul-2020 10_49",