"Test Suite","Test Case","Test Step","Step Type","Step Status","Result message","Execution Date"
"NHTestSuite","EndCustomerAddressUpdateTestCase","GroovyForExcel","groovy","FAILED","Colt NMTS API","15-Jul-2020 14_36",
"NHTestSuite","EndCustomerAddressUpdateTestCase","GroovyForExcel","groovy","FAILED","Colt NMTS API","15-Jul-2020 14_36",
"NHTestSuite","EndCustomerAddressUpdateTestCase","GroovyForExcel","groovy","FAILED","Colt NMTS API","15-Jul-2020 14_36",