"Test Suite","Test Case","Test Step","Step Type","Step Status","Result message","Execution Date"
"NHTestSuite","NumberActivationTestcase","NumberActivationwithAddress","request","OK","Colt NMTS API","07-Jul-2020 11_51",
"NHTestSuite","NumberActivationTestcase","NumberActivationWithoutAddress","request","OK","Colt NMTS API","07-Jul-2020 11_51",
"NHTestSuite","NumberActivationTestcase","NumberActivationwithAddress","request","OK","Colt NMTS API","07-Jul-2020 11_51",
"NHTestSuite","NumberActivationTestcase","NumberActivationWithoutAddress","request","OK","Colt NMTS API","07-Jul-2020 11_51",
"NHTestSuite","NumberActivationTestcase","GroovyForExcel","groovy","OK","Colt NMTS API","07-Jul-2020 11_51",
"NHTestSuite","NumberDe-activationTestCase","NumberDe-Activation","request","OK","Colt NMTS API","07-Jul-2020 11_51",
"NHTestSuite","NumberDe-activationTestCase","NumberDe-Activation","request","OK","Colt NMTS API","07-Jul-2020 11_51",
"NHTestSuite","NumberDe-activationTestCase","NumberDe-Activation","request","OK","Colt NMTS API","07-Jul-2020 11_51",
"NHTestSuite","NumberDe-activationTestCase","ExcelReader","groovy","OK","Colt NMTS API","07-Jul-2020 11_51",
"NHTestSuite","NumberRe-ActivationTestCase","NumberRe-Activation","request","OK","Colt NMTS API","07-Jul-2020 11_51",
"NHTestSuite","NumberRe-ActivationTestCase","NumberRe-Activation","request","OK","Colt NMTS API","07-Jul-2020 11_51",
"NHTestSuite","NumberRe-ActivationTestCase","NumberRe-Activation","request","OK","Colt NMTS API","07-Jul-2020 11_51",
"NHTestSuite","NumberRe-ActivationTestCase","ExcelReader","groovy","OK","Colt NMTS API","07-Jul-2020 11_51",
"NHTestSuite","NumberEnquiryTestCase","WithNumberStatus(Activated)","request","FAILED","Colt NMTS API","07-Jul-2020 11_51",
"NHTestSuite","NumberEnquiryTestCase","GroovyForExcel","groovy","FAILED","Colt NMTS API","07-Jul-2020 11_51",
"NHTestSuite","cancelNumberReservationTestCase","cancelReservation","request","OK","Colt NMTS API","07-Jul-2020 11_51",
"NHTestSuite","cancelNumberReservationTestCase","cancelReservation","request","OK","Colt NMTS API","07-Jul-2020 11_51",
"NHTestSuite","cancelNumberReservationTestCase","cancelReservation","request","OK","Colt NMTS API","07-Jul-2020 11_51",
"NHTestSuite","cancelNumberReservationTestCase","ExcelReader","groovy","OK","Colt NMTS API","07-Jul-2020 11_51",
"NHTestSuite","GetTransactionDetailTestCase","GetTransactionDetail","request","OK","Colt NMTS API","07-Jul-2020 11_51",
"NHTestSuite","GetTransactionDetailTestCase","GetTransactionDetail","request","OK","Colt NMTS API","07-Jul-2020 11_51",
"NHTestSuite","GetTransactionDetailTestCase","ExcelReader","groovy","OK","Colt NMTS API","07-Jul-2020 11_51",