"Test Suite","Test Case","Test Step","Step Type","Step Status","Result message","Execution Date"
"NHTestSuite","NewPortInTestCase","NewPortIn","request","OK","Colt NMTS API","23-Sep-2020 18_53",
"NHTestSuite","NewPortInTestCase","NewPortIn","request","OK","Colt NMTS API","23-Sep-2020 18_53",
"NHTestSuite","NewPortInTestCase","NewPortIn","request","FAILED","Colt NMTS API","23-Sep-2020 18_53",
"NHTestSuite","NewPortInTestCase","ExcelReader","groovy","FAILED","Colt NMTS API","23-Sep-2020 18_53",