"Test Suite","Test Case","Test Step","Step Type","Step Status","Result message","Execution Date"
"NHTestSuite","GetTransactionDetailTestCase","GetTransactionDetail","request","OK","Colt NMTS API","29-Sep-2020 16_26",
"NHTestSuite","GetTransactionDetailTestCase","GetTransactionDetail","request","OK","Colt NMTS API","29-Sep-2020 16_26",
"NHTestSuite","GetTransactionDetailTestCase","GetTransactionDetail","request","OK","Colt NMTS API","29-Sep-2020 16_26",
"NHTestSuite","GetTransactionDetailTestCase","GetTransactionDetail","request","OK","Colt NMTS API","29-Sep-2020 16_26",
"NHTestSuite","GetTransactionDetailTestCase","GetTransactionDetail","request","FAILED","Colt NMTS API","29-Sep-2020 16_26",
"NHTestSuite","GetTransactionDetailTestCase","ExcelReader","groovy","FAILED","Colt NMTS API","29-Sep-2020 16_26",