"Test Suite","Test Case","Test Step","Step Type","Step Status","Result message","Execution Date"
"NHTestSuite","GetTransactionListTestCase","GetTransactionList(Activated)","request","OK","Colt NMTS API","14-Jul-2020 16_57",
"NHTestSuite","GetTransactionListTestCase","GetTransactionList(PortOut)","request","OK","Colt NMTS API","14-Jul-2020 16_57",
"NHTestSuite","GetTransactionListTestCase","GetTransactionList(PortOut)","request","OK","Colt NMTS API","14-Jul-2020 16_57",
"NHTestSuite","GetTransactionListTestCase","GroovyForExcel","groovy","OK","Colt NMTS API","14-Jul-2020 16_57",
"NHTestSuite","ValidateGeoNumberTestCase","WithValidateGeoNumber","request","OK","Colt NMTS API","14-Jul-2020 16_57",
"NHTestSuite","ValidateGeoNumberTestCase","ExcelReader","groovy","OK","Colt NMTS API","14-Jul-2020 16_57",
"NHTestSuite","DirectoryServiceUpdateTestCase","DirectoryServiceUpdate","request","OK","Colt NMTS API","14-Jul-2020 16_57",
"NHTestSuite","DirectoryServiceUpdateTestCase","DirectoryServiceUpdate","request","OK","Colt NMTS API","14-Jul-2020 16_57",
"NHTestSuite","DirectoryServiceUpdateTestCase","DirectoryServiceUpdate","request","OK","Colt NMTS API","14-Jul-2020 16_57",
"NHTestSuite","DirectoryServiceUpdateTestCase","DirectoryServiceUpdate","request","OK","Colt NMTS API","14-Jul-2020 16_57",
"NHTestSuite","DirectoryServiceUpdateTestCase","DirectoryServiceUpdate","request","FAILED","Colt NMTS API","14-Jul-2020 16_57",
"NHTestSuite","DirectoryServiceUpdateTestCase","ExcelReader","groovy","FAILED","Colt NMTS API","14-Jul-2020 16_57",
"NHTestSuite","PortInReactivationTestCase","PortInReactivation","request","OK","Colt NMTS API","14-Jul-2020 16_57",
"NHTestSuite","PortInReactivationTestCase","PortInReactivation","request","FAILED","Colt NMTS API","14-Jul-2020 16_57",
"NHTestSuite","PortInReactivationTestCase","ExcelReader","groovy","FAILED","Colt NMTS API","14-Jul-2020 16_57",
"NHTestSuite","Port-InCancellationTestCase","Port-InCancellation","request","FAILED","Colt NMTS API","14-Jul-2020 16_57",
"NHTestSuite","Port-InCancellationTestCase","ExcelReader","groovy","FAILED","Colt NMTS API","14-Jul-2020 16_57",