"Test Suite","Test Case","Test Step","Step Type","Step Status","Result message","Execution Date"
"NHTestSuite","NumberEnquiryTestCase","WithNumberStatus(Activated)","request","OK","Colt NMTS API","12-Jul-2020 14_43",
"NHTestSuite","NumberEnquiryTestCase","WithNumberStatus(Quarantined)","request","FAILED","Colt NMTS API","12-Jul-2020 14_43",
"NHTestSuite","NumberEnquiryTestCase","GroovyForExcel","groovy","FAILED","Colt NMTS API","12-Jul-2020 14_43",
"NHTestSuite","cancelNumberReservationTestCase","cancelReservation","request","OK","Colt NMTS API","12-Jul-2020 14_43",
"NHTestSuite","cancelNumberReservationTestCase","cancelReservation","request","OK","Colt NMTS API","12-Jul-2020 14_43",
"NHTestSuite","cancelNumberReservationTestCase","cancelReservation","request","OK","Colt NMTS API","12-Jul-2020 14_43",
"NHTestSuite","cancelNumberReservationTestCase","cancelReservation","request","OK","Colt NMTS API","12-Jul-2020 14_43",
"NHTestSuite","cancelNumberReservationTestCase","cancelReservation","request","OK","Colt NMTS API","12-Jul-2020 14_43",
"NHTestSuite","cancelNumberReservationTestCase","cancelReservation","request","OK","Colt NMTS API","12-Jul-2020 14_43",
"NHTestSuite","cancelNumberReservationTestCase","cancelReservation","request","OK","Colt NMTS API","12-Jul-2020 14_43",
"NHTestSuite","cancelNumberReservationTestCase","cancelReservation","request","OK","Colt NMTS API","12-Jul-2020 14_43",
"NHTestSuite","cancelNumberReservationTestCase","cancelReservation","request","OK","Colt NMTS API","12-Jul-2020 14_43",
"NHTestSuite","cancelNumberReservationTestCase","cancelReservation","request","OK","Colt NMTS API","12-Jul-2020 14_43",
"NHTestSuite","cancelNumberReservationTestCase","cancelReservation","request","OK","Colt NMTS API","12-Jul-2020 14_43",
"NHTestSuite","cancelNumberReservationTestCase","cancelReservation","request","OK","Colt NMTS API","12-Jul-2020 14_43",
"NHTestSuite","cancelNumberReservationTestCase","cancelReservation","request","OK","Colt NMTS API","12-Jul-2020 14_43",
"NHTestSuite","cancelNumberReservationTestCase","cancelReservation","request","OK","Colt NMTS API","12-Jul-2020 14_43",
"NHTestSuite","cancelNumberReservationTestCase","cancelReservation","request","OK","Colt NMTS API","12-Jul-2020 14_43",
"NHTestSuite","cancelNumberReservationTestCase","ExcelReader","groovy","OK","Colt NMTS API","12-Jul-2020 14_43",
"NHTestSuite","GetTransactionDetailTestCase","GetTransactionDetail","request","OK","Colt NMTS API","12-Jul-2020 14_43",
"NHTestSuite","GetTransactionDetailTestCase","GetTransactionDetail","request","OK","Colt NMTS API","12-Jul-2020 14_43",
"NHTestSuite","GetTransactionDetailTestCase","GetTransactionDetail","request","OK","Colt NMTS API","12-Jul-2020 14_43",
"NHTestSuite","GetTransactionDetailTestCase","GetTransactionDetail","request","OK","Colt NMTS API","12-Jul-2020 14_43",
"NHTestSuite","GetTransactionDetailTestCase","GetTransactionDetail","request","OK","Colt NMTS API","12-Jul-2020 14_43",
"NHTestSuite","GetTransactionDetailTestCase","GetTransactionDetail","request","OK","Colt NMTS API","12-Jul-2020 14_43",
"NHTestSuite","GetTransactionDetailTestCase","GetTransactionDetail","request","OK","Colt NMTS API","12-Jul-2020 14_43",
"NHTestSuite","GetTransactionDetailTestCase","GetTransactionDetail","request","OK","Colt NMTS API","12-Jul-2020 14_43",
"NHTestSuite","GetTransactionDetailTestCase","GetTransactionDetail","request","OK","Colt NMTS API","12-Jul-2020 14_43",
"NHTestSuite","GetTransactionDetailTestCase","GetTransactionDetail","request","OK","Colt NMTS API","12-Jul-2020 14_43",
"NHTestSuite","GetTransactionDetailTestCase","GetTransactionDetail","request","OK","Colt NMTS API","12-Jul-2020 14_43",
"NHTestSuite","GetTransactionDetailTestCase","GetTransactionDetail","request","OK","Colt NMTS API","12-Jul-2020 14_43",
"NHTestSuite","GetTransactionDetailTestCase","GetTransactionDetail","request","OK","Colt NMTS API","12-Jul-2020 14_43",
"NHTestSuite","GetTransactionDetailTestCase","ExcelReader","groovy","OK","Colt NMTS API","12-Jul-2020 14_43",