"Test Suite","Test Case","Test Step","Step Type","Step Status","Result message","Execution Date"
"NHTestSuite","EndCustomerAddressUpdateTestCase","WithModify","request","OK","Colt NMTS API","20-Jul-2020 13_48",
"NHTestSuite","EndCustomerAddressUpdateTestCase","WithModify","request","FAILED","Colt NMTS API","20-Jul-2020 13_48",
"NHTestSuite","EndCustomerAddressUpdateTestCase","GroovyForExcel","groovy","FAILED","Colt NMTS API","20-Jul-2020 13_48",